{ 
    "categories": [
    {"id": 1, "categoryName": "Special"},
    {"id": 2, "categoryName": "Programming"},
    {"id": 3, "categoryName": "Architecture"},
    {"id": 4, "categoryName": "Networking/Infrastructure"},
    {"id": 5, "categoryName": "Database"},
    {"id": 6, "categoryName": "Dev Ops"},
    {"id": 7, "categoryName": "UX/UI"}
    ],
  "tagList": [
      "C#",
      "iOS",
      "Objective-C",
      "Swift",
      "Mobile"
    ],
    "questions": [
        {
            "id": 1,
            "questionText": "Which of the following function of Array object reverses the order of the elements of an array?",
            "answers": [
                {"id": 1,
                "answerText": "reverse()",
                "correct": true},
                {"id": 2,
                "answerText": "push()",
                "correct": false},
                {"id": 3,
                "answerText": "reduce()",
                "correct": false},
                {"id": 4,
                "answerText": "reduceRight()",
                "correct": false}
            ],
            "ordered": false,
            "tags": ["JavaScript"],
            "categories": [2]
        }
    ]  
}